Lab6
…
Question 1

mt_samples %>%
         count(description, sort = TRUE)

# A tibble: 2,348 × 2
   description                                                                 n
   <chr>                                                                   <int>
 1 An example/template for a routine normal male physical exam.               12
 2 Common description of colonoscopy                                          10
 3 Sample normal ear, nose, mouth, and throat exam.                            8
 4 Sample progress note - Gen Med.                                             8
 5 An example/template for a routine normal female physical exam.              6
 6 Common description of EGD.                                                  6
 7 Normal review of systems template.  Negative weakness, negative fatigu…     6
 8 Occupational medicine consult with questions-answers and records revie…     6
 9 <NA>                                                                        6
10 Lumbar discogram L2-3, L3-4, L4-5, and L5-S1.  Low back pain.               5
# ℹ 2,338 more rows

mt_samples %>%
         count(transcription, sort = TRUE)

# A tibble: 2,358 × 2
   transcription                                                               n
   <chr>                                                                   <int>
 1  <NA>                                                                      33
 2 "PREOPERATIVE DIAGNOSIS: , Low back pain.,POSTOPERATIVE DIAGNOSIS: , L…     5
 3 "ADMISSION DIAGNOSES:,1.  Seizure.,2.  Hypoglycemia.,3.  Anemia.,4.  H…     4
 4 "CHIEF COMPLAINT:  ,Blood in toilet.,HISTORY: , Ms. ABC is a 77-year-o…     4
 5 "CHIEF COMPLAINT: , Blood in urine.,HISTORY OF PRESENT ILLNESS:  ,This…     4
 6 "CHIEF COMPLAINT: , Burn, right arm.,HISTORY OF PRESENT ILLNESS: , Thi…     4
 7 "CHIEF COMPLAINT: , Jaw pain.,HISTORY OF PRESENT ILLNESS:  ,This is a …     4
 8 "CHIEF COMPLAINT: , Newly diagnosed high-risk acute lymphoblastic leuk…     4
 9 "CHIEF COMPLAINT:,"                                                         4
10 "CHIEF COMPLAINT:,  Abdominal pain.,HISTORY OF PRESENT ILLNESS:,  The …     4
# ℹ 2,348 more rows

mt_samples %>%
         count(medical_specialty, sort = TRUE)

# A tibble: 40 × 2
   medical_specialty                 n
   <chr>                         <int>
 1 Surgery                        1103
 2 Consult - History and Phy.      516
 3 Cardiovascular / Pulmonary      372
 4 Orthopedic                      355
 5 Radiology                       273
 6 General Medicine                259
 7 Gastroenterology                230
 8 Neurology                       223
 9 SOAP / Chart / Progress Notes   166
10 Obstetrics / Gynecology         160
# ℹ 30 more rows

Description: 2,348

Transcription: 2,358

Medical Specialty: 40

Question 2

tokenized <- mt_samples %>%
  unnest_tokens(word, transcription)
tokenized

# A tibble: 2,403,596 × 3
   description                                           medical_specialty word 
   <chr>                                                 <chr>             <chr>
 1 A 23-year-old white female presents with complaint o… Allergy / Immuno… subj…
 2 A 23-year-old white female presents with complaint o… Allergy / Immuno… this 
 3 A 23-year-old white female presents with complaint o… Allergy / Immuno… 23   
 4 A 23-year-old white female presents with complaint o… Allergy / Immuno… year 
 5 A 23-year-old white female presents with complaint o… Allergy / Immuno… old  
 6 A 23-year-old white female presents with complaint o… Allergy / Immuno… white
 7 A 23-year-old white female presents with complaint o… Allergy / Immuno… fema…
 8 A 23-year-old white female presents with complaint o… Allergy / Immuno… pres…
 9 A 23-year-old white female presents with complaint o… Allergy / Immuno… with 
10 A 23-year-old white female presents with complaint o… Allergy / Immuno… comp…
# ℹ 2,403,586 more rows

word_counts <- tokenized %>%
  count(word, sort = TRUE)
word_counts

# A tibble: 23,647 × 2
   word         n
   <chr>    <int>
 1 the     149888
 2 and      82779
 3 was      71765
 4 of       59205
 5 to       50632
 6 a        42810
 7 with     35815
 8 in       32807
 9 is       26378
10 patient  22065
# ℹ 23,637 more rows
…
Adding the tri-grams gives you more information about the patient.

Question 5

library(tidyr)

mt_samples %>%
  unnest_ngrams(ngram, transcription, n = 2)

# A tibble: 2,398,638 × 3
   description                                           medical_specialty ngram
   <chr>                                                 <chr>             <chr>
 1 A 23-year-old white female presents with complaint o… Allergy / Immuno… subj…
 2 A 23-year-old white female presents with complaint o… Allergy / Immuno… this…
 3 A 23-year-old white female presents with complaint o… Allergy / Immuno… 23 y…
 4 A 23-year-old white female presents with complaint o… Allergy / Immuno… year…
 5 A 23-year-old white female presents with complaint o… Allergy / Immuno… old …
 6 A 23-year-old white female presents with complaint o… Allergy / Immuno… whit…
 7 A 23-year-old white female presents with complaint o… Allergy / Immuno… fema…
 8 A 23-year-old white female presents with complaint o… Allergy / Immuno… pres…
 9 A 23-year-old white female presents with complaint o… Allergy / Immuno… with…
10 A 23-year-old white female presents with complaint o… Allergy / Immuno… comp…
# ℹ 2,398,628 more rows

mt_samples %>%
  unnest_ngrams(ngram, transcription, n = 2) %>%
  count(ngram, sort = TRUE)

# A tibble: 301,419 × 2
   ngram           n
   <chr>       <int>
 1 the patient 20307
 2 of the      19062
 3 in the      12790
 4 to the      12374
 5 was then     6956
 6 and the      6350
 7 patient was  6293
 8 the right    5509
 9 on the       5241
10 the left     4860
# ℹ 301,409 more rows

mt_samples %>%
  unnest_ngrams(ngram, transcription, n = 2) %>%
  separate(ngram, into = c("word1", "word2"), sep = " ") %>%
  select(word1, word2)

# A tibble: 2,398,638 × 2
   word1      word2    
   <chr>      <chr>    
 1 subjective this     
 2 this       23       
 3 23         year     
 4 year       old      
 5 old        white    
 6 white      female   
 7 female     presents 
 8 presents   with     
 9 with       complaint
10 complaint  of       
# ℹ 2,398,628 more rows

mt_samples %>%
  unnest_ngrams(ngram, transcription, n = 2) %>%
  separate(ngram, into = c("word1", "word2"), sep = " ") %>%
  select(word1, word2) %>%
  filter(word1 == "female")

# A tibble: 1,474 × 2
   word1  word2   
   <chr>  <chr>   
 1 female presents
 2 female who     
 3 female who     
 4 female who     
 5 female who     
 6 female with    
 7 female who     
 8 female with    
 9 female that    
10 female who     
# ℹ 1,464 more rows

mt_samples %>%
  unnest_ngrams(ngram, transcription, n = 2) %>%
  separate(ngram, into = c("word1", "word2"), sep = " ") %>%
  select(word1, word2) %>%
  filter(word1 == "female") %>%
  count(word2, sort = TRUE)

# A tibble: 104 × 2
   word2         n
   <chr>     <int>
 1 who         508
 2 with        362
 3 in           64
 4 presents     64
 5 infant       31
 6 gravida      30
 7 patient      26
 8 genitalia    22
 9 admitted     19
10 referred     16
# ℹ 94 more rows

mt_samples %>%
  unnest_ngrams(ngram, transcription, n = 2) %>%
  separate(ngram, into = c("word1", "word2"), sep = " ") %>%
  select(word1, word2) %>%
  filter(word2 == "female") %>%
  count(word1, sort = TRUE)

# A tibble: 70 × 2
   word1         n
   <chr>     <int>
 1 old         690
 2 white       207
 3 caucasian   133
 4 american     96
 5 black        30
 6 normal       27
 7 nourished    22
 8 viable       18
 9 handed       17
10 obese        14
# ℹ 60 more rows

Question 6

mt_samples %>%
  unnest_tokens(word, transcription) %>%
  anti_join(stop_words) %>%
  group_by(medical_specialty, word) %>%
  count(sort = TRUE) %>%
  group_by(medical_specialty) %>%
  top_n(5)

Joining with `by = join_by(word)`
Selecting by n

# A tibble: 209 × 3
# Groups:   medical_specialty [40]
   medical_specialty          word          n
   <chr>                      <chr>     <int>
 1 Surgery                    patient    4855
 2 Surgery                    left       3263
 3 Surgery                    procedure  3243
 4 Consult - History and Phy. patient    3046
 5 Consult - History and Phy. history    2820
 6 Surgery                    0          2094
 7 Surgery                    1          2038
 8 Orthopedic                 patient    1711
 9 Cardiovascular / Pulmonary left       1550
10 Cardiovascular / Pulmonary patient    1516
# ℹ 199 more rows
…
Joining with `by = join_by(word)`

specialty_word_frequencies <- word_counts %>%
  group_by(medical_specialty) %>%
  mutate(word_frequency = n / sum(n))

target_words <- c("surgical", "blood", "pain")

filtered_words <- specialty_word_frequencies %>%
  filter(word %in% target_words)

print(filtered_words)

# A tibble: 115 × 4
# Groups:   medical_specialty [40]
   medical_specialty          word         n word_frequency
   <chr>                      <chr>    <int>          <dbl>
 1 Allergy / Immunology       blood        7       0.00416 
 2 Allergy / Immunology       pain         5       0.00297 
 3 Allergy / Immunology       surgical     3       0.00178 
 4 Autopsy                    blood       24       0.00460 
 5 Autopsy                    pain         1       0.000192
 6 Autopsy                    surgical     4       0.000767
 7 Bariatrics                 blood       14       0.00370 
 8 Bariatrics                 pain        22       0.00582 
 9 Bariatrics                 surgical    14       0.00370 
10 Cardiovascular / Pulmonary blood      310       0.00331 
# ℹ 105 more rows
…
